Ratnaweera-XYZ - Making sense of data with dm
…
Maybe check_key was useful, but what did dm_add_pk give us?

You’ll see soon enough! First, let’s import the “SDG Targets”

sdg_target_list <- GET("https://unstats.un.org/SDGAPI/v1/sdg/Target/List") |> 
  content()

sdg_targets <- map_dfr(sdg_target_list, ~.x)

sdg_targets

# A tibble: 169 × 5
   goal  code  title                                               descr…¹ uri  
   <chr> <chr> <chr>                                               <chr>   <chr>
 1 1     1.1   By 2030, eradicate extreme poverty for all people … By 203… /v1/…
 2 1     1.2   By 2030, reduce at least by half the proportion of… By 203… /v1/…
 3 1     1.3   Implement nationally appropriate social protection… Implem… /v1/…
 4 1     1.4   By 2030, ensure that all men and women, in particu… By 203… /v1/…
 5 1     1.5   By 2030, build the resilience of the poor and thos… By 203… /v1/…
 6 1     1.a   Ensure significant mobilization of resources from … Ensure… /v1/…
 7 1     1.b   Create sound policy frameworks at the national, re… Create… /v1/…
 8 2     2.1   By 2030, end hunger and ensure access by all peopl… By 203… /v1/…
 9 2     2.2   By 2030, end all forms of malnutrition, including … By 203… /v1/…
10 2     2.3   By 2030, double the agricultural productivity and … By 203… /v1/…
# … with 159 more rows, and abbreviated variable name ¹​description
# ℹ Use `print(n = ...)` to see more rows
…
sdg_items <- read_csv("SDG_BulkDownloads_E_All_Data_(Normalized)/SDG_BulkDownloads_E_All_Data_(Normalized).csv", name_repair = ~str_replace_all(str_to_lower(.), " ", "_"))

Rows: 158702 Columns: 12
── Column specification ────────────────────────────────────────────────────────
Delimiter: ","
chr (9): area_code, area, item_code, item, element, unit, value, flag, note
dbl (3): element_code, year_code, year

ℹ Use `spec()` to retrieve the full column specification for this data.
ℹ Specify the column types or set `show_col_types = FALSE` to quiet this message.

sdg_items

# A tibble: 158,702 × 12
   area_code area  item_…¹ item  eleme…² element year_…³  year unit  value flag 
   <chr>     <chr> <chr>   <chr>   <dbl> <chr>     <dbl> <dbl> <chr> <chr> <chr>
 1 004       Afgh… SN_ITK… 2.1.…    6132 Value      2001  2001 mill… 10.3  _    
 2 004       Afgh… SN_ITK… 2.1.…    6132 Value      2002  2002 mill… 10.3  _    
 3 004       Afgh… SN_ITK… 2.1.…    6132 Value      2003  2003 mill… 9.6   _    
 4 004       Afgh… SN_ITK… 2.1.…    6132 Value      2004  2004 mill… 9.4   _    
 5 004       Afgh… SN_ITK… 2.1.…    6132 Value      2005  2005 mill… 9.2   _    
 6 004       Afgh… SN_ITK… 2.1.…    6132 Value      2006  2006 mill… 8.8   _    
 7 004       Afgh… SN_ITK… 2.1.…    6132 Value      2007  2007 mill… 8.1   _    
 8 004       Afgh… SN_ITK… 2.1.…    6132 Value      2008  2008 mill… 7.4   _    
 9 004       Afgh… SN_ITK… 2.1.…    6132 Value      2009  2009 mill… 6.9   _    
10 004       Afgh… SN_ITK… 2.1.…    6132 Value      2010  2010 mill… 6.9   _    
# … with 158,692 more rows, 1 more variable: note <chr>, and abbreviated
#   variable names ¹​item_code, ²​element_code, ³​year_code
# ℹ Use `print(n = ...)` to see more rows, and `colnames()` to see all variable names
…
Next I want to add country information on each code. For this, I will not use the data provided by the API, since I don’t really like the format it’s provided in. Instead, I will use the csv file which can be downloaded here.

area_codes <- read_delim("data/UNSD — Methodology.csv", ";", name_repair = ~str_remove_all(str_replace_all(str_to_lower(.x), "\\s|-", "_"), "\\(|\\)")) 

Rows: 249 Columns: 15
── Column specification ────────────────────────────────────────────────────────
Delimiter: ";"
chr (15): global_code, global_name, region_code, region_name, sub_region_cod...

ℹ Use `spec()` to retrieve the full column specification for this data.
ℹ Specify the column types or set `show_col_types = FALSE` to quiet this message.

area_codes

# A tibble: 249 × 15
   global_code global_…¹ regio…² regio…³ sub_r…⁴ sub_r…⁵ inter…⁶ inter…⁷ count…⁸
   <chr>       <chr>     <chr>   <chr>   <chr>   <chr>   <chr>   <chr>   <chr>  
 1 001         World     002     Africa  015     Northe… <NA>    <NA>    Algeria
 2 001         World     002     Africa  015     Northe… <NA>    <NA>    Egypt  
 3 001         World     002     Africa  015     Northe… <NA>    <NA>    Libya  
 4 001         World     002     Africa  015     Northe… <NA>    <NA>    Morocco
 5 001         World     002     Africa  015     Northe… <NA>    <NA>    Sudan  
 6 001         World     002     Africa  015     Northe… <NA>    <NA>    Tunisia
 7 001         World     002     Africa  015     Northe… <NA>    <NA>    Wester…
 8 001         World     002     Africa  202     Sub-Sa… 014     Easter… Britis…
 9 001         World     002     Africa  202     Sub-Sa… 014     Easter… Burundi
10 001         World     002     Africa  202     Sub-Sa… 014     Easter… Comoros
# … with 239 more rows, 6 more variables: m49_code <chr>,
#   iso_alpha2_code <chr>, iso_alpha3_code <chr>,
#   least_developed_countries_ldc <chr>,
#   land_locked_developing_countries_lldc <chr>,
#   small_island_developing_states_sids <chr>, and abbreviated variable names
#   ¹​global_name, ²​region_code, ³​region_name, ⁴​sub_region_code,
#   ⁵​sub_region_name, ⁶​intermediate_region_code, ⁷​intermediate_region_name, …
# ℹ Use `print(n = ...)` to see more rows, and `colnames()` to see all variable names
…
